[Thu Aug 24 00:24:13.901011 2017] [mpm_prefork:notice] [pid 1] AH00163: Apache/2.4.27 (Ubuntu) configured -- resuming normal operations
[Thu Aug 24 00:24:13.901049 2017] [core:notice] [pid 1] AH00094: Command line: 'apache2 -D FOREGROUND'
[Thu Aug 24 00:24:38.843500 2017] [mpm_prefork:notice] [pid 1] AH00169: caught SIGTERM, shutting down
